Statgl-pakken: Hent data med oneliners
…
Befolkningsfremskrivning 2019

"BEXP19" %>% statgl_url() %>% statgl_fetch() %>% as_tibble()

## # A tibble: 110 x 3
##    region time  value
##    <chr>  <chr> <int>
##  1 Total  1996  55857
##  2 Total  1997  55967
##  3 Total  1998  56072
##  4 Total  1999  56084
##  5 Total  2000  56121
##  6 Total  2001  56242
##  7 Total  2002  56512
##  8 Total  2003  56675
##  9 Total  2004  56825
## 10 Total  2005  56969
## # ... with 100 more rows
…
Eksempel på en lidt mere avanceret brug

read_px <- function(px) px %>% statgl_url() %>% statgl_fetch() %>% as_tibble()

set_names(c("BEXP19", "BEXP20")) %>% map_dfr(~ read_px(.x), .id = "frem")

## # A tibble: 165 x 4
##    frem   region time  value
##    <chr>  <chr>  <chr> <int>
##  1 BEXP19 Total  1996  55857
##  2 BEXP19 Total  1997  55967
##  3 BEXP19 Total  1998  56072
##  4 BEXP19 Total  1999  56084
##  5 BEXP19 Total  2000  56121
##  6 BEXP19 Total  2001  56242
##  7 BEXP19 Total  2002  56512
##  8 BEXP19 Total  2003  56675
##  9 BEXP19 Total  2004  56825
## 10 BEXP19 Total  2005  56969
## # ... with 155 more rows
…
